RISC_V_Processor_32_bit.sim/sim_1/behav/xsim/riscv_pipeline.vcd
$date
   Sat Mar 28 00:30:41 2026
$end
$version
  2018.3
$end
$timescale
  1ps
$end
$scope module tb_riscv_pipeline $end
$var reg 1 ! clk $end
$var reg 1 " reset $end
$scope module DUT $end
$var wire 1 # clk $end
$var wire 1 $ reset $end
$var wire 32 % pc [31:0] $end
$var wire 32 & next_pc [31:0] $end
$var wire 32 ' instr [31:0] $end
$var wire 32 ( IFID_pc [31:0] $end
$var wire 32 ) IFID_instr [31:0] $end
$var wire 7 * opcode [6:0] $end
$var wire 5 + rs1 [4:0] $end
$var wire 5 , rs2 [4:0] $end
$var wire 5 - rd [4:0] $end
$var wire 3 . funct3 [2:0] $end
$var wire 1 / funct7 $end
$var wire 1 0 RegWrite $end
$var wire 1 1 MemRead $end
$var wire 1 2 MemWrite $end
$var wire 1 3 MemToReg $end
$var wire 1 4 Branch $end
$var wire 1 5 ALUSrc $end
$var wire 2 6 ALUOp [1:0] $end
$var wire 32 7 reg1 [31:0] $end
$var wire 32 8 reg2 [31:0] $end
$var wire 32 9 wb_data [31:0] $end
$var wire 32 : imm [31:0] $end
$var wire 32 ; IDEX_pc [31:0] $end
$var wire 32 < IDEX_reg1 [31:0] $end
$var wire 32 = IDEX_reg2 [31:0] $end
$var wire 32 > IDEX_imm [31:0] $end
$var wire 5 ? IDEX_rs1 [4:0] $end
$var wire 5 @ IDEX_rs2 [4:0] $end
$var wire 5 A IDEX_rd [4:0] $end
$var wire 1 B IDEX_RegWrite $end
$var wire 1 C IDEX_MemRead $end
$var wire 1 D IDEX_MemWrite $end
$var wire 1 E IDEX_MemToReg $end
$var wire 1 F IDEX_Branch $end
$var wire 1 G IDEX_ALUSrc $end
$var wire 2 H IDEX_ALUOp [1:0] $end
$var wire 4 I alu_ctrl [3:0] $end
$var wire 32 J alu_in2 [31:0] $end
$var wire 32 K alu_result [31:0] $end
$var wire 1 L zero $end
$var wire 32 M branch_addr [31:0] $end
$var wire 32 N EXMEM_alu [31:0] $end
$var wire 32 O EXMEM_reg2 [31:0] $end
$var wire 32 P EXMEM_branch_target [31:0] $end
$var wire 5 Q EXMEM_rd [4:0] $end
$var wire 1 R EXMEM_RegWrite $end
$var wire 1 S EXMEM_MemRead $end
$var wire 1 T EXMEM_MemWrite $end
$var wire 1 U EXMEM_MemToReg $end
$var wire 1 V EXMEM_Branch $end
$var wire 1 W EXMEM_zero $end
$var wire 32 X mem_data [31:0] $end
$var wire 32 Y MEMWB_mem [31:0] $end
$var wire 32 Z MEMWB_alu [31:0] $end
$var wire 5 [ MEMWB_rd [4:0] $end
$var wire 1 \ MEMWB_RegWrite $end
$var wire 1 ] MEMWB_MemToReg $end
$var wire 1 ^ RegWrite_WB $end
$var wire 1 _ rd_WB $end
$scope module PC $end
$var wire 1 # clk $end
$var wire 1 $ reset $end
$var wire 32 & next_pc [31:0] $end
$var reg 32 ` pc_out [31:0] $end
$upscope $end
$scope module IMEM $end
$var wire 32 % addr [31:0] $end
$var wire 32 ' instr [31:0] $end
$upscope $end
$scope module IFID $end
$var wire 1 # clk $end
$var wire 1 $ reset $end
$var wire 32 % pc_in [31:0] $end
$var wire 32 ' instr_in [31:0] $end
$var reg 32 a pc_out [31:0] $end
$var reg 32 b instr_out [31:0] $end
$upscope $end
$scope module CU $end
$var wire 7 * opcode [6:0] $end
$var reg 1 c RegWrite $end
$var reg 1 d MemRead $end
$var reg 1 e MemWrite $end
$var reg 1 f MemToReg $end
$var reg 1 g Branch $end
$var reg 1 h ALUSrc $end
$var reg 2 i ALUOp [1:0] $end
$upscope $end
$scope module RF $end
$var wire 1 # clk $end
$var wire 1 ^ RegWrite $end
$var wire 5 + rs1 [4:0] $end
$var wire 5 , rs2 [4:0] $end
$var wire 5 j rd [4:0] $end
$var wire 32 9 write_data [31:0] $end
$var wire 32 7 reg1 [31:0] $end
$var wire 32 8 reg2 [31:0] $end
$upscope $end
$scope module IMM $end
$var wire 32 ) instr [31:0] $end
$var reg 32 k imm [31:0] $end
$var wire 7 l opcode [6:0] $end
$upscope $end
$scope module IDEX $end
$var wire 1 # clk $end
$var wire 1 $ reset $end
$var wire 32 ( pc_in [31:0] $end
$var wire 32 7 reg1_in [31:0] $end
$var wire 32 8 reg2_in [31:0] $end
$var wire 32 : imm_in [31:0] $end
$var wire 5 + rs1_in [4:0] $end
$var wire 5 , rs2_in [4:0] $end
$var wire 5 - rd_in [4:0] $end
$var wire 1 0 RegWrite_in $end
$var wire 1 1 MemRead_in $end
$var wire 1 2 MemWrite_in $end
$var wire 1 3 MemToReg_in $end
$var wire 1 4 Branch_in $end
$var wire 1 5 ALUSrc_in $end
$var wire 2 6 ALUOp_in [1:0] $end
$var reg 32 m pc_out [31:0] $end
$var reg 32 n reg1_out [31:0] $end
$var reg 32 o reg2_out [31:0] $end
$var reg 32 p imm_out [31:0] $end
$var reg 5 q rs1_out [4:0] $end
$var reg 5 r rs2_out [4:0] $end
$var reg 5 s rd_out [4:0] $end
$var reg 1 t RegWrite_out $end
$var reg 1 u MemRead_out $end
$var reg 1 v MemWrite_out $end
$var reg 1 w MemToReg_out $end
$var reg 1 x Branch_out $end
$var reg 1 y ALUSrc_out $end
$var reg 2 z ALUOp_out [1:0] $end
$upscope $end
$scope module ALUCTRL $end
$var wire 2 H ALUOp [1:0] $end
$var wire 3 . funct3 [2:0] $end
$var wire 1 / funct7 $end
$var reg 4 { alu_ctrl [3:0] $end
$upscope $end
$scope module ALU $end
$var wire 32 < a [31:0] $end
$var wire 32 J b [31:0] $end
$var wire 4 I alu_ctrl [3:0] $end
$var reg 32 | result [31:0] $end
$var wire 1 L zero $end
$upscope $end
$scope module EXMEM $end
$var wire 1 # clk $end
$var wire 1 $ reset $end
$var wire 32 K alu_in [31:0] $end
$var wire 32 = reg2_in [31:0] $end
$var wire 5 A rd_in [4:0] $end
$var wire 1 B RegWrite_in $end
$var wire 1 C MemRead_in $end
$var wire 1 D MemWrite_in $end
$var wire 1 E MemToReg_in $end
$var wire 1 F Branch_in $end
$var wire 1 L zero_in $end
$var wire 32 M branch_target_in [31:0] $end
$var reg 32 } alu_out [31:0] $end
$var reg 32 ~ reg2_out [31:0] $end
$var reg 5 !! rd_out [4:0] $end
$var reg 1 "! RegWrite_out $end
$var reg 1 #! MemRead_out $end
$var reg 1 $! MemWrite_out $end
$var reg 1 %! MemToReg_out $end
$var reg 1 &! Branch_out $end
$var reg 1 '! zero_out $end
$var reg 32 (! branch_target_out [31:0] $end
$upscope $end
$scope module DMEM $end
$var wire 1 # clk $end
$var wire 1 S MemRead $end
$var wire 1 T MemWrite $end
$var wire 32 N addr [31:0] $end
$var wire 32 O write_data [31:0] $end
$var reg 32 )! read_data [31:0] $end
$upscope $end
$scope module MEMWB $end
$var wire 1 # clk $end
$var wire 1 $ reset $end
$var wire 32 X mem_in [31:0] $end
$var wire 32 N alu_in [31:0] $end
$var wire 5 Q rd_in [4:0] $end
$var wire 1 R RegWrite_in $end
$var wire 1 U MemToReg_in $end
$var reg 32 *! mem_out [31:0] $end
$var reg 32 +! alu_out [31:0] $end
$var reg 5 ,! rd_out [4:0] $end
$var reg 1 -! RegWrite_out $end
$var reg 1 .! MemToReg_out $end
$upscope $end
$upscope $end
$upscope $end
$enddefinitions $end
#0
$dumpvars
0!
b0 !!
1"
0"!
0#
0#!
1$
0$!
b0 %
0%!
b100 &
0&!
b1000000000000010010011 '
0'!
b0 (
b0 (!
b0 )
b0 )!
b0 *
b0 *!
b0 +
b0 +!
b0 ,
b0 ,!
b0 -
0-!
b0 .
0.!
0/
00
01
02
03
04
05
b0 6
b0 7
b0 8
b0 9
b0 :
b0 ;
b0 <
b0 =
b0 >
b0 ?
b0 @
b0 A
0B
0C
0D
0E
0F
0G
b0 H
b10 I
b0 J
b0 K
1L
b0 M
b0 N
b0 O
b0 P
b0 Q
0R
0S
0T
0U
0V
0W
b0 X
b0 Y
b0 Z
b0 [
0\
0]
z^
z_
b0 `
b0 a
b0 b
0c
0d
0e
0f
0g
0h
b0 i
bz j
b0 k
b0 l
b0 m
b0 n
b0 o
b0 p
b0 q
b0 r
b0 s
0t
0u
0v
0w
0x
0y
b0 z
b10 {
b0 |
b0 }
b0 ~
$end
#5000
1!
1#
#10000
0!
0#
#15000
1!
1#
#20000
0!
0"
0#
0$
#25000
1!
1#
b100 %
b1000 &
b1100000000000100010011 '
1'!
b1000000000000010010011 )
b10011 *
b10 ,
b1 -
10
15
b10 6
bx 8
b10 :
1W
b100 `
b1000000000000010010011 b
1c
0d
0e
0f
0g
1h
b10 i
b10 k
b10011 l
#30000
0!
0#
#35000
1!
1#
b1000 %
b1100 &
b1000001000000110110011 '
b100 (
b1100000000000100010011 )
b11 ,
b10 -
b11 :
bx =
b10 >
b10 @
b1 A
1B
1G
b10 H
b10 J
b10 K
0L
b10 M
b1000 `
b100 a
b1100000000000100010011 b
b11 k
bx o
b10 p
b10 r
b1 s
1t
1y
b10 z
b10 {
b10 |
#40000
0!
0#
#45000
1!
b1 !!
1"!
1#
b1100 %
b10000 &
b1100011010000000100011 '
0'!
b1000 (
b10 (!
b1000001000000110110011 )
b0 )!
b110011 *
b1 +
b10 ,
b11 -
05
bx 7
b0 :
b100 ;
b11 >
b11 @
b10 A
b11 J
b11 K
b111 M
b10 N
bx O
b10 P
b1 Q
1R
0W
b1100 `
b1000 a
b1000001000000110110011 b
1c
0d
0e
0f
0g
0h
b10 i
b0 k
b110011 l
b100 m
b11 p
b11 r
b10 s
b11 |
b10 }
bx ~
#50000
0!
0#
#55000
1!
b10 !!
1#
b10000 %
b10100 &
b1100011010010100000011 '
b1100 (
b111 (!
b1100011010000000100011 )
b0 )!
b100011 *
b11 +
b10 +!
b11 ,
b1 ,!
b0 -
1-!
b10 .
00
12
15
b0 6
b10 9
b1000 ;
bx <
b0 >
b1 ?
b10 @
b11 A
0G
b0 I
bx J
bx K
xL
b1000 M
b11 N
b111 P
b10 Q
b10 Z
b1 [
1\
b10000 `
b1100 a
b1100011010000000100011 b
0c
0d
1e
0f
0g
1h
b0 i
b0 k
b100011 l
b1000 m
bx n
b0 p
b1 q
b10 r
b11 s
0y
b0 {
bx |
b11 }
#60000
0!
0#
#65000
1!
b11 !!
1#
b10100 %
b11000 &
b1101111 '
x'!
b10000 (
b1000 (!
b1100011010010100000011 )
b0 )!
b11 *
b11 +!
b10 ,!
b1010 -
10
11
02
13
b11 9
b11 :
b1100 ;
b11 ?
b11 @
b0 A
0B
1D
1G
b0 H
b10 I
b0 J
bx K
xL
b1100 M
bx N
b1000 P
b11 Q
xW
b11 Z
b10 [
b10100 `
b10000 a
b1100011010010100000011 b
1c
1d
0e
1f
0g
1h
b0 i
b11 k
b11 l
b1100 m
b11 q
b11 r
b0 s
0t
1v
1y
b0 z
b10 {
bx |
bx }
#70000
0!
0#
#75000
1!
b0 !!
0"!
1#
1$!
b11000 %
b11100 &
bx '
b10100 (
b1100 (!
b1101111 )
b1101111 *
b0 +
bx +!
b0 ,
b11 ,!
b0 -
b0 .
00
01
03
05
b0 7
b0 8
bx 9
b0 :
b10000 ;
b11 >
b1010 A
1B
1C
0D
1E
b11 J
b10011 M
b1100 P
b0 Q
0R
1T
bx Z
b11 [
b11000 `
b10100 a
b1101111 b
0c
0d
0e
0f
0g
0h
b0 i
b0 k
b1101111 l
b10000 m
b11 p
b1010 s
1t
1u
0v
1w
b10 {
bx |
#80000
0!
0#
#85000
1!
b1010 !!
1"!
1#
1#!
0$!
b11100 %
1%!
b100000 &
b11000 (
b10011 (!
bx )
bx )!
bx *
bx +
bx ,
b0 ,!
bx -
0-!
bx .
x/
bx 7
bx 8
b10100 ;
b0 <
b0 =
b0 >
b0 ?
b0 @
b0 A
0B
0C
0E
0G
b0 J
b0 K
1L
b10100 M
b10011 P
b1010 Q
1R
1S
0T
1U
bx X
b0 [
0\
b11100 `
b11000 a
bx b
0c
0d
0e
0f
0g
0h
b0 i
b0 k
bx l
b10100 m
b0 n
b0 o
b0 p
b0 q
b0 r
b0 s
0t
0u
0w
0y
b10 {
b0 |
#90000
0!
0#
#95000
1!
b0 !!
0"!
1#
0#!
b100000 %
0%!
b100100 &
1'!
b11100 (
b10100 (!
b0 )!
bx *!
b1010 ,!
1-!
1.!
b11000 ;
bx <
bx =
bx ?
bx @
bx A
bx J
bx K
xL
b11000 M
b0 N
b0 O
b10100 P
b0 Q
0R
0S
0U
1W
b0 X
bx Y
b1010 [
1\
1]
b100000 `
b11100 a
b11000 m
bx n
bx o
bx q
bx r
bx s
bx |
b0 }
b0 ~
#100000
0!
0#
#105000
1!
bx !!
1#
b100100 %
b101000 &
x'!
b100000 (
b11000 (!
b0 )!
b0 *!
b0 +!
b0 ,!
0-!
0.!
b0 9
b11100 ;
b11100 M
bx N
bx O
b11000 P
bx Q
xW
b0 Y
b0 Z
b0 [
0\
0]
b100100 `
b100000 a
b11100 m
bx }
bx ~
#110000
0!
0#
#115000
1!
1#
b101000 %
b101100 &
b100100 (
b11100 (!
bx +!
bx ,!
bx 9
b100000 ;
b100000 M
b11100 P
bx Z
bx [
b101000 `
b100100 a
b100000 m
#120000
0!
0#
#125000
1!
1#
b101100 %
b110000 &
b101000 (
b100000 (!
b100100 ;
b100100 M
b100000 P
b101100 `
b101000 a
b100100 m
#130000
0!
0#
#135000
1!
1#
b110000 %
b110100 &
b101100 (
b100100 (!
b101000 ;
b101000 M
b100100 P
b110000 `
b101100 a
b101000 m
#140000
0!
0#
#145000
1!
1#
b110100 %
b111000 &
b110000 (
b101000 (!
b101100 ;
b101100 M
b101000 P
b110100 `
b110000 a
b101100 m
#150000
0!
0#
#155000
1!
1#
b111000 %
b111100 &
b110100 (
b101100 (!
b110000 ;
b110000 M
b101100 P
b111000 `
b110100 a
b110000 m
#160000
0!
0#
#165000
1!
1#
b111100 %
b1000000 &
b111000 (
b110000 (!
b110100 ;
b110100 M
b110000 P
b111100 `
b111000 a
b110100 m
#170000
0!
0#
#175000
1!
1#
b1000000 %
b1000100 &
b111100 (
b110100 (!
b111000 ;
b111000 M
b110100 P
b1000000 `
b111100 a
b111000 m
#180000
0!
0#
#185000
1!
1#
b1000100 %
b1001000 &
b1000000 (
b111000 (!
b111100 ;
b111100 M
b111000 P
b1000100 `
b1000000 a
b111100 m
#190000
0!
0#
#195000
1!
1#
b1001000 %
b1001100 &
b1000100 (
b111100 (!
b1000000 ;
b1000000 M
b111100 P
b1001000 `
b1000100 a
b1000000 m
#200000
0!
0#
#205000
1!
1#
b1001100 %
b1010000 &
b1001000 (
b1000000 (!
b1000100 ;
b1000100 M
b1000000 P
b1001100 `
b1001000 a
b1000100 m
#210000
0!
0#
#215000
1!
1#
b1010000 %
b1010100 &
b1001100 (
b1000100 (!
b1001000 ;
b1001000 M
b1000100 P
b1010000 `
b1001100 a
b1001000 m
#220000
0!
0#
#225000
1!
1#
b1010100 %
b1011000 &
b1010000 (
b1001000 (!
b1001100 ;
b1001100 M
b1001000 P
b1010100 `
b1010000 a
b1001100 m
#230000
0!
0#
#235000
1!
1#
b1011000 %
b1011100 &
b1010100 (
b1001100 (!
b1010000 ;
b1010000 M
b1001100 P
b1011000 `
b1010100 a
b1010000 m
#240000
0!
0#
#245000
1!
1#
b1011100 %
b1100000 &
b1011000 (
b1010000 (!
b1010100 ;
b1010100 M
b1010000 P
b1011100 `
b1011000 a
b1010100 m
#250000
0!
0#
#255000
1!
1#
b1100000 %
b1100100 &
b1011100 (
b1010100 (!
b1011000 ;
b1011000 M
b1010100 P
b1100000 `
b1011100 a
b1011000 m
#260000
0!
0#
#265000
1!
1#
b1100100 %
b1101000 &
b1100000 (
b1011000 (!
b1011100 ;
b1011100 M
b1011000 P
b1100100 `
b1100000 a
b1011100 m
#270000
0!
0#
#275000
1!
1#
b1101000 %
b1101100 &
b1100100 (
b1011100 (!
b1100000 ;
b1100000 M
b1011100 P
b1101000 `
b1100100 a
b1100000 m
#280000
0!
0#
#285000
1!
1#
b1101100 %
b1110000 &
b1101000 (
b1100000 (!
b1100100 ;
b1100100 M
b1100000 P
b1101100 `
b1101000 a
b1100100 m
#290000
0!
0#
#295000
1!
1#
b1110000 %
b1110100 &
b1101100 (
b1100100 (!
b1101000 ;
b1101000 M
b1100100 P
b1110000 `
b1101100 a
b1101000 m
#300000
0!
0#
#305000
1!
1#
b1110100 %
b1111000 &
b1110000 (
b1101000 (!
b1101100 ;
b1101100 M
b1101000 P
b1110100 `
b1110000 a
b1101100 m
#310000
0!
0#
#315000
1!
1#
b1111000 %
b1111100 &
b1110100 (
b1101100 (!
b1110000 ;
b1110000 M
b1101100 P
b1111000 `
b1110100 a
b1110000 m
#320000
0!
0#
#325000
1!
1#
b1111100 %
b10000000 &
b1111000 (
b1110000 (!
b1110100 ;
b1110100 M
b1110000 P
b1111100 `
b1111000 a
b1110100 m
#330000
0!
0#
#335000
1!
1#
b10000000 %
b10000100 &
b1111100 (
b1110100 (!
b1111000 ;
b1111000 M
b1110100 P
b10000000 `
b1111100 a
b1111000 m
#340000
0!
0#
#345000
1!
1#
b10000100 %
b10001000 &
b10000000 (
b1111000 (!
b1111100 ;
b1111100 M
b1111000 P
b10000100 `
b10000000 a
b1111100 m
#350000
0!
0#
#355000
1!
1#
b10001000 %
b10001100 &
b10000100 (
b1111100 (!
b10000000 ;
b10000000 M
b1111100 P
b10001000 `
b10000100 a
b10000000 m
#360000
0!
0#
#365000
1!
1#
b10001100 %
b10010000 &
b10001000 (
b10000000 (!
b10000100 ;
b10000100 M
b10000000 P
b10001100 `
b10001000 a
b10000100 m
#370000
0!
0#
#375000
1!
1#
b10010000 %
b10010100 &
b10001100 (
b10000100 (!
b10001000 ;
b10001000 M
b10000100 P
b10010000 `
b10001100 a
b10001000 m
#380000
0!
0#
#385000
1!
1#
b10010100 %
b10011000 &
b10010000 (
b10001000 (!
b10001100 ;
b10001100 M
b10001000 P
b10010100 `
b10010000 a
b10001100 m
#390000
0!
0#
#395000
1!
1#
b10011000 %
b10011100 &
b10010100 (
b10001100 (!
b10010000 ;
b10010000 M
b10001100 P
b10011000 `
b10010100 a
b10010000 m
#400000
0!
0#
#405000
1!
1#
b10011100 %
b10100000 &
b10011000 (
b10010000 (!
b10010100 ;
b10010100 M
b10010000 P
b10011100 `
b10011000 a
b10010100 m
#410000
0!
0#
#415000
1!
1#
b10100000 %
b10100100 &
b10011100 (
b10010100 (!
b10011000 ;
b10011000 M
b10010100 P
b10100000 `
b10011100 a
b10011000 m
#420000
0!
0#
#425000
1!
1#
b10100100 %
b10101000 &
b10100000 (
b10011000 (!
b10011100 ;
b10011100 M
b10011000 P
b10100100 `
b10100000 a
b10011100 m
#430000
0!
0#
#435000
1!
1#
b10101000 %
b10101100 &
b10100100 (
b10011100 (!
b10100000 ;
b10100000 M
b10011100 P
b10101000 `
b10100100 a
b10100000 m
#440000
0!
0#
#445000
1!
1#
b10101100 %
b10110000 &
b10101000 (
b10100000 (!
b10100100 ;
b10100100 M
b10100000 P
b10101100 `
b10101000 a
b10100100 m
#450000
0!
0#
#455000
1!
1#
b10110000 %
b10110100 &
b10101100 (
b10100100 (!
b10101000 ;
b10101000 M
b10100100 P
b10110000 `
b10101100 a
b10101000 m
#460000
0!
0#
#465000
1!
1#
b10110100 %
b10111000 &
b10110000 (
b10101000 (!
b10101100 ;
b10101100 M
b10101000 P
b10110100 `
b10110000 a
b10101100 m
#470000
0!
0#
#475000
1!
1#
b10111000 %
b10111100 &
b10110100 (
b10101100 (!
b10110000 ;
b10110000 M
b10101100 P
b10111000 `
b10110100 a
b10110000 m
#480000
0!
0#
#485000
1!
1#
b10111100 %
b11000000 &
b10111000 (
b10110000 (!
b10110100 ;
b10110100 M
b10110000 P
b10111100 `
b10111000 a
b10110100 m
#490000
0!
0#
#495000
1!
1#
b11000000 %
b11000100 &
b10111100 (
b10110100 (!
b10111000 ;
b10111000 M
b10110100 P
b11000000 `
b10111100 a
b10111000 m
#500000
0!
0#
#505000
1!
1#
b11000100 %
b11001000 &
b11000000 (
b10111000 (!
b10111100 ;
b10111100 M
b10111000 P
b11000100 `
b11000000 a
b10111100 m
#510000
0!
0#
#515000
1!
1#
b11001000 %
b11001100 &
b11000100 (
b10111100 (!
b11000000 ;
b11000000 M
b10111100 P
b11001000 `
b11000100 a
b11000000 m
#520000
0!
0#
#525000
1!
1#
b11001100 %
b11010000 &
b11001000 (
b11000000 (!
b11000100 ;
b11000100 M
b11000000 P
b11001100 `
b11001000 a
b11000100 m
#530000
0!
0#
#535000
1!
1#
b11010000 %
b11010100 &
b11001100 (
b11000100 (!
b11001000 ;
b11001000 M
b11000100 P
b11010000 `
b11001100 a
b11001000 m
#540000
0!
0#
#545000
1!
1#
b11010100 %
b11011000 &
b11010000 (
b11001000 (!
b11001100 ;
b11001100 M
b11001000 P
b11010100 `
b11010000 a
b11001100 m
#550000
0!
0#
#555000
1!
1#
b11011000 %
b11011100 &
b11010100 (
b11001100 (!
b11010000 ;
b11010000 M
b11001100 P
b11011000 `
b11010100 a
b11010000 m
#560000
0!
0#
#565000
1!
1#
b11011100 %
b11100000 &
b11011000 (
b11010000 (!
b11010100 ;
b11010100 M
b11010000 P
b11011100 `
b11011000 a
b11010100 m
#570000
0!
0#
#575000
1!
1#
b11100000 %
b11100100 &
b11011100 (
b11010100 (!
b11011000 ;
b11011000 M
b11010100 P
b11100000 `
b11011100 a
b11011000 m
#580000
0!
0#
#585000
1!
1#
b11100100 %
b11101000 &
b11100000 (
b11011000 (!
b11011100 ;
b11011100 M
b11011000 P
b11100100 `
b11100000 a
b11011100 m
#590000
0!
0#
#595000
1!
1#
b11101000 %
b11101100 &
b11100100 (
b11011100 (!
b11100000 ;
b11100000 M
b11011100 P
b11101000 `
b11100100 a
b11100000 m
#600000
0!
0#
#605000
1!
1#
b11101100 %
b11110000 &
b11101000 (
b11100000 (!
b11100100 ;
b11100100 M
b11100000 P
b11101100 `
b11101000 a
b11100100 m
#610000
0!
0#
#615000
1!
1#
b11110000 %
b11110100 &
b11101100 (
b11100100 (!
b11101000 ;
b11101000 M
b11100100 P
b11110000 `
b11101100 a
b11101000 m
#620000
0!
0#
#625000
1!
1#
b11110100 %
b11111000 &
b11110000 (
b11101000 (!
b11101100 ;
b11101100 M
b11101000 P
b11110100 `
b11110000 a
b11101100 m
#630000
0!
0#
#635000
1!
1#
b11111000 %
b11111100 &
b11110100 (
b11101100 (!
b11110000 ;
b11110000 M
b11101100 P
b11111000 `
b11110100 a
b11110000 m
#640000
0!
0#
#645000
1!
1#
b11111100 %
b100000000 &
b11111000 (
b11110000 (!
b11110100 ;
b11110100 M
b11110000 P
b11111100 `
b11111000 a
b11110100 m
#650000
0!
0#
#655000
1!
1#
b100000000 %
b100000100 &
b11111100 (
b11110100 (!
b11111000 ;
b11111000 M
b11110100 P
b100000000 `
b11111100 a
b11111000 m
#660000
0!
0#
#665000
1!
1#
b100000100 %
b100001000 &
b100000000 (
b11111000 (!
b11111100 ;
b11111100 M
b11111000 P
b100000100 `
b100000000 a
b11111100 m
#670000
0!
0#
#675000
1!
1#
b100001000 %
b100001100 &
b100000100 (
b11111100 (!
b100000000 ;
b100000000 M
b11111100 P
b100001000 `
b100000100 a
b100000000 m
#680000
0!
0#
#685000
1!
1#
b100001100 %
b100010000 &
b100001000 (
b100000000 (!
b100000100 ;
b100000100 M
b100000000 P
b100001100 `
b100001000 a
b100000100 m
#690000
0!
0#
#695000
1!
1#
b100010000 %
b100010100 &
b100001100 (
b100000100 (!
b100001000 ;
b100001000 M
b100000100 P
b100010000 `
b100001100 a
b100001000 m
#700000
0!
0#
#705000
1!
1#
b100010100 %
b100011000 &
b100010000 (
b100001000 (!
b100001100 ;
b100001100 M
b100001000 P
b100010100 `
b100010000 a
b100001100 m
#710000
0!
0#
#715000
1!
1#
b100011000 %
b100011100 &
b100010100 (
b100001100 (!
b100010000 ;
b100010000 M
b100001100 P
b100011000 `
b100010100 a
b100010000 m
#720000
0!
0#
#725000
1!
1#
b100011100 %
b100100000 &
b100011000 (
b100010000 (!
b100010100 ;
b100010100 M
b100010000 P
b100011100 `
b100011000 a
b100010100 m
#730000
0!
0#
#735000
1!
1#
b100100000 %
b100100100 &
b100011100 (
b100010100 (!
b100011000 ;
b100011000 M
b100010100 P
b100100000 `
b100011100 a
b100011000 m
#740000
0!
0#
#745000
1!
1#
b100100100 %
b100101000 &
b100100000 (
b100011000 (!
b100011100 ;
b100011100 M
b100011000 P
b100100100 `
b100100000 a
b100011100 m
#750000
0!
0#
#755000
1!
1#
b100101000 %
b100101100 &
b100100100 (
b100011100 (!
b100100000 ;
b100100000 M
b100011100 P
b100101000 `
b100100100 a
b100100000 m
#760000
0!
0#
#765000
1!
1#
b100101100 %
b100110000 &
b100101000 (
b100100000 (!
b100100100 ;
b100100100 M
b100100000 P
b100101100 `
b100101000 a
b100100100 m
#770000
0!
0#
#775000
1!
1#
b100110000 %
b100110100 &
b100101100 (
b100100100 (!
b100101000 ;
b100101000 M
b100100100 P
b100110000 `
b100101100 a
b100101000 m
#780000
0!
0#
#785000
1!
1#
b100110100 %
b100111000 &
b100110000 (
b100101000 (!
b100101100 ;
b100101100 M
b100101000 P
b100110100 `
b100110000 a
b100101100 m
#790000
0!
0#
#795000
1!
1#
b100111000 %
b100111100 &
b100110100 (
b100101100 (!
b100110000 ;
b100110000 M
b100101100 P
b100111000 `
b100110100 a
b100110000 m
#800000
0!
0#
#805000
1!
1#
b100111100 %
b101000000 &
b100111000 (
b100110000 (!
b100110100 ;
b100110100 M
b100110000 P
b100111100 `
b100111000 a
b100110100 m
#810000
0!
0#
#815000
1!
1#
b101000000 %
b101000100 &
b100111100 (
b100110100 (!
b100111000 ;
b100111000 M
b100110100 P
b101000000 `
b100111100 a
b100111000 m
#820000
0!
0#
#825000
1!
1#
b101000100 %
b101001000 &
b101000000 (
b100111000 (!
b100111100 ;
b100111100 M
b100111000 P
b101000100 `
b101000000 a
b100111100 m
#830000
0!
0#
#835000
1!
1#
b101001000 %
b101001100 &
b101000100 (
b100111100 (!
b101000000 ;
b101000000 M
b100111100 P
b101001000 `
b101000100 a
b101000000 m
#840000
0!
0#
#845000
1!
1#
b101001100 %
b101010000 &
b101001000 (
b101000000 (!
b101000100 ;
b101000100 M
b101000000 P
b101001100 `
b101001000 a
b101000100 m
#850000
0!
0#
#855000
1!
1#
b101010000 %
b101010100 &
b101001100 (
b101000100 (!
b101001000 ;
b101001000 M
b101000100 P
b101010000 `
b101001100 a
b101001000 m
#860000
0!
0#
#865000
1!
1#
b101010100 %
b101011000 &
b101010000 (
b101001000 (!
b101001100 ;
b101001100 M
b101001000 P
b101010100 `
b101010000 a
b101001100 m
#870000
0!
0#
#875000
1!
1#
b101011000 %
b101011100 &
b101010100 (
b101001100 (!
b101010000 ;
b101010000 M
b101001100 P
b101011000 `
b101010100 a
b101010000 m
#880000
0!
0#
#885000
1!
1#
b101011100 %
b101100000 &
b101011000 (
b101010000 (!
b101010100 ;
b101010100 M
b101010000 P
b101011100 `
b101011000 a
b101010100 m
#890000
0!
0#
#895000
1!
1#
b101100000 %
b101100100 &
b101011100 (
b101010100 (!
b101011000 ;
b101011000 M
b101010100 P
b101100000 `
b101011100 a
b101011000 m
#900000
0!
0#
#905000
1!
1#
b101100100 %
b101101000 &
b101100000 (
b101011000 (!
b101011100 ;
b101011100 M
b101011000 P
b101100100 `
b101100000 a
b101011100 m
#910000
0!
0#
#915000
1!
1#
b101101000 %
b101101100 &
b101100100 (
b101011100 (!
b101100000 ;
b101100000 M
b101011100 P
b101101000 `
b101100100 a
b101100000 m
#920000
0!
0#
#925000
1!
1#
b101101100 %
b101110000 &
b101101000 (
b101100000 (!
b101100100 ;
b101100100 M
b101100000 P
b101101100 `
b101101000 a
b101100100 m
#930000
0!
0#
#935000
1!
1#
b101110000 %
b101110100 &
b101101100 (
b101100100 (!
b101101000 ;
b101101000 M
b101100100 P
b101110000 `
b101101100 a
b101101000 m
#940000
0!
0#
#945000
1!
1#
b101110100 %
b101111000 &
b101110000 (
b101101000 (!
b101101100 ;
b101101100 M
b101101000 P
b101110100 `
b101110000 a
b101101100 m
#950000
0!
0#
#955000
1!
1#
b101111000 %
b101111100 &
b101110100 (
b101101100 (!
b101110000 ;
b101110000 M
b101101100 P
b101111000 `
b101110100 a
b101110000 m
#960000
0!
0#
#965000
1!
1#
b101111100 %
b110000000 &
b101111000 (
b101110000 (!
b101110100 ;
b101110100 M
b101110000 P
b101111100 `
b101111000 a
b101110100 m
#970000
0!
0#
#975000
1!
1#
b110000000 %
b110000100 &
b101111100 (
b101110100 (!
b101111000 ;
b101111000 M
b101110100 P
b110000000 `
b101111100 a
b101111000 m
#980000
0!
0#
#985000
1!
1#
b110000100 %
b110001000 &
b110000000 (
b101111000 (!
b101111100 ;
b101111100 M
b101111000 P
b110000100 `
b110000000 a
b101111100 m
#990000
0!
0#
#995000
1!
1#
b110001000 %
b110001100 &
b110000100 (
b101111100 (!
b110000000 ;
b110000000 M
b101111100 P
b110001000 `
b110000100 a
b110000000 m
